<svg xmlns="http://www.w3.org/2000/svg" width="28" height="28" viewBox="0 0 28 28">
    <g fill="#FFF" transform="translate(2.000000, 2.000000)">
        <rect width="30" height="3" x="-3" y="11" rx="1.5" transform="translate(12.000000, 12.500000) scale(1, -1) rotate(45.000000) translate(-12.000000, -12.500000)"/>
        <rect width="30" height="3" x="-3" y="11" rx="1.5" transform="translate(12.000000, 12.500000) rotate(45.000000) translate(-12.000000, -12.500000)"/>
    </g>
</svg>
